{
  "project_info": {
    "project_number": "151514546052",
    "firebase_url": "https://buddyvpn.firebaseio.com",
    "project_id": "buddyvpn",
    "storage_bucket": "buddyvpn.appspot.com"
  },
  "client": [
    {
      "client_info": {
        "mobilesdk_app_id": "1:151514546052:android:3daa9dcda0cb1323",
        "android_client_info": {
          "package_name": "com.keepsolid.vpn.buddy"
        }
      },
      "oauth_client": [
        {
          "client_id": "151514546052-r3iijb8lklii29d54789mhu1dop7gki5.apps.googleusercontent.com",
          "client_type": 3
        }
      ],
      "api_key": [
        {
          "current_key": "AIzaSyAe6BfTuk0AscPMPRYkgKwhADwiUgZ-rSU"
        }
      ],
      "services": {
        "appinvite_service": {
          "other_platform_oauth_client": [
            {
              "client_id": "151514546052-r3iijb8lklii29d54789mhu1dop7gki5.apps.googleusercontent.com",
              "client_type": 3
            }
          ]
        }
      }
    }
  ],
  "configuration_version": "1"
}